

  ## 1. दिल्ली सरकार ने "रेड लाइट ऑन,गाडी ऑफ" अभियान शुरू किया है
  ![Delhi at a Glance: A City of National Monuments](https://m.jagranjosh.com/imported/images/E/GK/delhi-map.jpg)
 ___
 # आज का सवाल 

 ### **अंतराष्ट्रीय तिथि रेखा का निर्धारण किस वर्ष किया गया था ?**
![International Date Line (IDL)](https://c.tadst.com/gfx/600x337/international-date-line.jpg?1)