

  ## 1. हाल ही में श्री अइयर ने Who Painted My Lust Red पुस्तक लिखी है 
![A book titled "Who painted my lust red?" by Sree Iyer](https://currentaffairs.adda247.com/wp-content/uploads/2020/08/25120531/MONEY-SERIES-BOOK-2.jpg)

 # अगस्त के महत्तवपूर्ण दिन
 ### 09= **भारत छोड़ो दिवस-आदिवासी दिवस**
 ### 12= **अंतर्राष्ट्रीय युवा दिवस(2000)**
 ### 29= **राष्ट्रीय खेल दिवस**

 ___
 # आज का सवाल 

 ### **किस संविधान संशोधन अधिनियम द्वारा भारतीय संविधान में 9वी अनुसूची जोड़ी गयी ?**
 ![NRIs are not permitted to purchase any agricultural land in India](https://images.livemint.com/img/2020/06/02/600x338/land_1591113216603_1591113238037.jpg)