

  ## 1. हाल ही में ब्राज़ील देश के फुटबॉल फेडरेशन ने महिला और पुरुष टीम को सामान वेतन देने का नियम पारित किया है 
![Brazil Physical Map](https://www.freeworldmaps.net/southamerica/brazil/brazil-physical-map.jpg)

 ___
 # आज का सवाल 

 ### **भारत के प्रधानमंत्री की नियुक्ति कौन करता है ?**
 ![Indira Gandhi Wiki, Age, Death, Husband, Family, Biography & More – WikiBio](https://wikibio.in/wp-content/uploads/2019/06/Indira-Gandhi.jpg)