
 ## 1. सोनू सूद ने प्रवासी रोगजार एप्प लांच किया है
![Sonu Sood Asked To Register On Pravasi Rojgar Website Or Call In ...](https://new-img.patrika.com/upload/2020/07/24/a9931e31-3922-4a8d-b87a-3dca79755382_6291661_835x547-m.jpg)

 ## 2. ग्रेटा थनबर्ग गुलेनबेकियन मानवता पुरस्कार की विजेता बानी है
![Greta Thunberg: Kids 'will never forgive' you for failing on ...](https://cdn.cnn.com/cnnnext/dam/assets/190923112717-greta-thunberg-unga-climate-change-full-169.jpg)

 ## 3. रियर एडमिरल एम एस इक़बाल बांग्लादेश नौसेना के प्रमुख बने है 
![M Shaheen Iqbal made new Navy chief | The Daily Star](https://assetsds.cdnedge.bluemix.net/sites/default/files/styles/big_2/public/feature/images/navy_chief.jpg?itok=Z7DPTxC8)

 ___
 # जुलाई के महत्तवपूर्ण दिन
 ### 01= **SBI स्थापना/डॉक्टर्स/GST दिवस**
 ### 04= **अमेरिका स्वतंत्रता दिवस(1776)**
 ### 11= **विश्व जनसँख्या दिवस**
 ### 18= **नेल्सन मंडेला अंतर्राष्ट्रीय दिवस**
 ###  26= **कारगिल विजय दिवस**
 ###  29= **विश्व बाघ दिवस(1973)**

 ___
 # आज का सवाल 

 ### **किस शाषक ने गंगा और सोन नदियों के संगम पर पाटिलपुत्र नामक नगर की स्थापना की ?**
![Haryanka dynasty - Wikipedia](https://upload.wikimedia.org/wikipedia/commons/3/31/Magadha_Expansion_%286th-4th_centuries_BCE%29.png)